;*************************************************************
;*************************************************************
;**                                                         **
;**                 LONG INTEGER / ...                      **
;**                 ... / LONG INTEGER                      **
;**                                                         **
;*************************************************************
;*************************************************************
In: FL_SPCRES=0 FL_CPXRES=0 SD=0 RM=0 IM=2compl SS=4 WS=64
Func: fnDivide



;=======================================
; Long Integer / Long Integer --> Long Integer or Real
;=======================================
In:  FL_ASLIFT=0 RY=LonI:"125455431202845619505847489630102030405" RX=LonI:"5424563354566542698521412502251020304050"
Out: EC=0 FL_CPXRES=0 FL_ASLIFT=1 RL=LonI:"5424563354566542698521412502251020304050" RX=Real:"0.023127286567172983221941976258015368294992909577484352645319542"

In:  FL_ASLIFT=0 RY=LonI:"100" RX=LonI:"97"
Out: EC=0 FL_CPXRES=0 FL_ASLIFT=1 RL=LonI:"97" RX=Real:"1.0309278350515463917525773195876288659793814432989690721649485"

In:  FL_ASLIFT=0 RY=LonI:"100" RX=LonI:"25"
Out: EC=0 FL_CPXRES=0 FL_ASLIFT=1 RL=LonI:"25" RX=LonI:"4"



;=======================================
; Long Integer / Time
;=======================================
In:  FL_ASLIFT=0 FL_CPXRES=0 RY=LonI:"12545543120284569505847489630102030405" RX=Time:"123.456"
Out: EC=0 FL_CPXRES=0 FL_ASLIFT=1 RL=Time:"123.456" RX=Real:"3.65830378701921739089642971328791710876749611197511664074650e38"

;=======================================
; Time / Long Integer
;=======================================
In:  FL_ASLIFT=0 FL_CPXRES=0 RY=Time:"123.456" RX=LonI:"12545543120284569505847489630102030405"
Out: EC=0 FL_CPXRES=0 FL_ASLIFT=1 RL=LonI:"12545543120284569505847489630102030405" RX=Time:"9.8406261742775515542890234619968490617583323707530487292471935e-36"

In:  FL_ASLIFT=0 FL_CPXRES=0 FL_SPCRES=1 RY=Time:"123.456" RX=LonI:"0"
Out: EC=8 FL_CPXRES=0 FL_ASLIFT=0 RY=Time:"123.456" RX=LonI:"0"

In:  FL_ASLIFT=0 FL_CPXRES=0 FL_SPCRES=0 RY=Time:"123.456" RX=LonI:"0"
Out: EC=1 FL_CPXRES=0 FL_ASLIFT=0 RY=Time:"123.456" RX=LonI:"0"

In:  FL_ASLIFT=0 FL_CPXRES=0 FL_SPCRES=1 RY=Time:"-123.456" RX=LonI:"0"
Out: EC=8 FL_CPXRES=0 FL_ASLIFT=0 RY=Time:"-123.456" RX=LonI:"0"

In:  FL_ASLIFT=0 FL_CPXRES=0 FL_SPCRES=0 RY=Time:"-123.456" RX=LonI:"0"
Out: EC=1 FL_CPXRES=0 FL_ASLIFT=0 RY=Time:"-123.456" RX=LonI:"0"

In:  FL_ASLIFT=0 FL_CPXRES=0 FL_SPCRES=1 RY=Time:"0" RX=LonI:"0"
Out: EC=8 FL_CPXRES=0 FL_ASLIFT=0 RY=Time:"0" RX=LonI:"0"

In:  FL_ASLIFT=0 FL_CPXRES=0 FL_SPCRES=0 RY=Time:"0" RX=LonI:"0"
Out: EC=1 FL_CPXRES=0 FL_ASLIFT=0 RY=Time:"0" RX=LonI:"0"



;=======================================
; Long Integer / Date
;=======================================

;=======================================
; Date / Long Integer
;=======================================



;=======================================
; Long Integer / String --> Error24
;=======================================
In:  FL_ASLIFT=0 RY=LonI:"12540" RX=Stri:"String test"
Out: EC=24 FL_ASLIFT=0 RX=Stri:"String test"

;=======================================
; String / Long Integer --> Error24
;=======================================
In:  FL_ASLIFT=0 RY=Stri:"String test " RX=LonI:"-1234"
Out: EC=24 FL_ASLIFT=0 RX=LonI:"-1234"



;=======================================
; Long Integer / Real Matrix
;=======================================
In: FL_ASLIFT=0 FL_CPXRES=0 IM=2COMPL RY=LonI:"7" RX=ReMa:"M3,2[1,2,3,4,5,6]"
Out: EC=0 FL_CPXRES=0 FL_ASLIFT=1 RL=ReMa:"M3,2[1,2,3,4,5,6]" RX=ReMa:"M3,2[7,3.5,2.333333333333333333333333333333333333,1.75,1.4,1.16666666666666666666666666666666666667]"

In: FL_ASLIFT=0 FL_CPXRES=0 FL_SPCRES=1 IM=2COMPL RY=LonI:"7" RX=ReMa:"M3,2[0,1,2,3,4,5]"
Out: EC=0 FL_CPXRES=0 FL_ASLIFT=1 RL=ReMa:"M3,2[0,1,2,3,4,5]" RX=ReMa:"M3,2[inf,7,3.5,2.333333333333333333333333333333333333,1.75,1.4]"

In: FL_ASLIFT=0 FL_CPXRES=0 FL_SPCRES=0 IM=2COMPL RY=LonI:"7" RX=ReMa:"M3,2[0,1,2,3,4,5]"
Out: EC=1 FL_CPXRES=0 FL_ASLIFT=0 RY=LonI:"7" RX=ReMa:"M3,2[0,1,2,3,4,5]"

;=======================================
; Real Matrix / Long Integer
;=======================================
In: FL_ASLIFT=0 FL_CPXRES=0 IM=2COMPL RY=ReMa:"M3,2[1,2,3,4,5,6]" RX=LonI:"7"
Out: EC=0 FL_CPXRES=0 FL_ASLIFT=1 RL=LonI:"7" RX=ReMa:"M3,2[0.142857142857142857142857142857142857,0.285714285714285714285714285714285714,0.428571428571428571428571428571428571,0.571428571428571428571428571428571428,0.714285714285714285714285714285714285,0.857142857142857142857142857142857142]"

In: FL_ASLIFT=0 FL_CPXRES=0 FL_SPCRES=1 IM=2COMPL RY=ReMa:"M3,2[1,2,3,4,5,6]" RX=LonI:"0"
Out: EC=0 FL_CPXRES=0 FL_ASLIFT=1 RL=LonI:"0" RX=ReMa:"M3,2[inf,inf,inf,inf,inf,inf]"

In: FL_ASLIFT=0 FL_CPXRES=0 FL_SPCRES=0 IM=2COMPL RY=ReMa:"M3,2[1,2,3,4,5,6]" RX=LonI:"0"
Out: EC=1 FL_CPXRES=0 FL_ASLIFT=0 RY=ReMa:"M3,2[1,2,3,4,5,6]" RX=LonI:"0"



;=======================================
; Long Integer / Complex Matrix
;=======================================
In: FL_ASLIFT=0 FL_CPXRES=0 IM=2COMPL RY=LonI:"13" RX=CxMa:"M3,2[1i2,3i4,5i6,7i8,9i10,11i12]"
Out: EC=0 FL_CPXRES=1 FL_ASLIFT=1 RL=CxMa:"M3,2[1i2,3i4,5i6,7i8,9i10,11i12]" RX=CxMa:"M3,2[2.6i-5.2, 1.56i-2.08, 1.06557377049180327868852459016393442623i-1.27868852459016393442622950819672131148, 0.805309734513274336283185840707964601770i-0.920353982300884955752212389380530973451, 0.646408839779005524861878453038674033149i-0.718232044198895027624309392265193370166, 0.539622641509433962264150943396226415094i-0.588679245283018867924528301886792452830]"

;=======================================
; Complex Matrix / Long Integer
;=======================================
In: FL_ASLIFT=0 FL_CPXRES=0 IM=2COMPL RY=CxMa:"M3,2[1i2,3i4,5i6,7i8,9i10,11i12]" RX=LonI:"13"
Out: EC=0 FL_CPXRES=1 FL_ASLIFT=1 RL=LonI:"13" RX=CxMa:"M3,2[0.076923076923076923076923076923076923077i0.153846153846153846153846153846153846154, 0.230769230769230769230769230769230769231i0.307692307692307692307692307692307692308, 0.384615384615384615384615384615384615385i0.461538461538461538461538461538461538462, 0.538461538461538461538461538461538461538i0.615384615384615384615384615384615384615, 0.692307692307692307692307692307692307692i0.769230769230769230769230769230769230769, 0.846153846153846153846153846153846153846i0.923076923076923076923076923076923076923]"



;=======================================
; Long Integer / Short Integer --> Long Integer
;=======================================
In:  FL_ASLIFT=0 FL_CPXRES=0 IM=2COMPL RY=LonI:"123456" RX=ShoI:"45247#8" ;RX=19111
Out: EC=0 FL_CPXRES=0 FL_ASLIFT=1 RL=ShoI:"45247#8" RX=LonI:"6"

In:  FL_ASLIFT=0 FL_CPXRES=0 IM=2COMPL RY=LonI:"9" RX=ShoI:"5#7" ;RX=5
Out: EC=0 FL_CPXRES=0 FL_ASLIFT=1 RL=ShoI:"5#7" RX=LonI:"1"

In:  FL_ASLIFT=0 FL_CPXRES=0 IM=2COMPL RY=LonI:"9" RX=ShoI:"0#9"
Out: EC=1 FL_CPXRES=0 FL_ASLIFT=0 RY=LonI:"9" RX=ShoI:"0#9"

;=======================================
; Short Integer / Long Integer --> Long Integer
;=======================================
In:  FL_ASLIFT=0 FL_CPXRES=0 IM=2COMPL RY=ShoI:"45247#8" RX=LonI:"123456" ;RY=19111
Out: EC=0 FL_CPXRES=0 FL_ASLIFT=1 RL=LonI:"123456" RX=LonI:"0"

In:  FL_ASLIFT=0 FL_CPXRES=0 IM=2COMPL RY=ShoI:"9#11" RX=LonI:"5" ;RY=9
Out: EC=0 FL_CPXRES=0 FL_ASLIFT=1 RL=LonI:"5" RX=LonI:"1"

In:  FL_ASLIFT=0 FL_CPXRES=0 IM=2COMPL RY=ShoI:"9#11" RX=LonI:"0" ;RY=9
Out: EC=1 FL_CPXRES=0 FL_ASLIFT=0 RY=ShoI:"9#11" RX=LonI:"0"



;=======================================
; Long Integer / Real --> Real
;=======================================
In:  FL_ASLIFT=0 RY=LonI:"37125455431202845695058474896301" RX=Real:"123.456"
Out: EC=0 FL_CPXRES=0 FL_ASLIFT=1 RL=Real:"123.456" RX=Real:"300718113588670017618086402413.01354328667703473302229134266459"

In:  AM=DEG FL_CPXRES=0 FL_ASLIFT=0 RY=LonI:"2" RX=Real:"123.4":DEG
Out: EC=0 FL_CPXRES=0 FL_ASLIFT=1 RL=Real:"123.4":DEG RX=Real:"0.016207455429497568881685575364667747163695299837925445705024311"

In:  AM=DMS FL_CPXRES=0 FL_ASLIFT=0 RY=LonI:"2" RX=Real:"123.4":DEG
Out: EC=0 FL_CPXRES=0 FL_ASLIFT=1 RL=Real:"123.4":DEG RX=Real:"0.016207455429497568881685575364667747163695299837925445705024311"

In:  AM=GRAD FL_CPXRES=0 FL_ASLIFT=0 RY=LonI:"2" RX=Real:"123.4":DEG
Out: EC=0 FL_CPXRES=0 FL_ASLIFT=1 RL=Real:"123.4":DEG RX=Real:"0.016207455429497568881685575364667747163695299837925445705024311"

In:  AM=RAD FL_CPXRES=0 FL_ASLIFT=0 RY=LonI:"2" RX=Real:"123.4":DEG
Out: EC=0 FL_CPXRES=0 FL_ASLIFT=1 RL=Real:"123.4":DEG RX=Real:"0.016207455429497568881685575364667747163695299837925445705024311"

In:  AM=MULTPI FL_CPXRES=0 FL_ASLIFT=0 RY=LonI:"2" RX=Real:"123.4":DEG
Out: EC=0 FL_CPXRES=0 FL_ASLIFT=1 RL=Real:"123.4":DEG RX=Real:"0.016207455429497568881685575364667747163695299837925445705024311"

In:  AM=DEG FL_CPXRES=0 FL_ASLIFT=0 RY=LonI:"2" RX=Real:"123.453099":DMS
Out: EC=0 FL_CPXRES=0 FL_ASLIFT=1 RL=Real:"123.453099":DMS RX=Real:"0.016200484363701554385443171418483386958151613512755965729138966"

In:  AM=DMS FL_CPXRES=0 FL_ASLIFT=0 RY=LonI:"2" RX=Real:"123.453099":DMS
Out: EC=0 FL_CPXRES=0 FL_ASLIFT=1 RL=Real:"123.453099":DMS RX=Real:"0.016200484363701554385443171418483386958151613512755965729138966"

In:  AM=GRAD FL_CPXRES=0 FL_ASLIFT=0 RY=LonI:"2" RX=Real:"123.453099":DMS
Out: EC=0 FL_CPXRES=0 FL_ASLIFT=1 RL=Real:"123.453099":DMS RX=Real:"0.016200484363701554385443171418483386958151613512755965729138966"

In:  AM=RAD FL_CPXRES=0 FL_ASLIFT=0 RY=LonI:"2" RX=Real:"123.453099":DMS
Out: EC=0 FL_CPXRES=0 FL_ASLIFT=1 RL=Real:"123.453099":DMS RX=Real:"0.016200484363701554385443171418483386958151613512755965729138966"

In:  AM=MULTPI FL_CPXRES=0 FL_ASLIFT=0 RY=LonI:"2" RX=Real:"123.453099":DMS
Out: EC=0 FL_CPXRES=0 FL_ASLIFT=1 RL=Real:"123.453099":DMS RX=Real:"0.016200484363701554385443171418483386958151613512755965729138966"

In:  AM=DEG FL_CPXRES=0 FL_ASLIFT=0 RY=LonI:"2" RX=Real:"123.453099":GRAD
Out: EC=0 FL_CPXRES=0 FL_ASLIFT=1 RL=Real:"123.453099":GRAD RX=Real:"0.016200484363701554385443171418483386958151613512755965729138966"

In:  AM=DMS FL_CPXRES=0 FL_ASLIFT=0 RY=LonI:"2" RX=Real:"123.453099":GRAD
Out: EC=0 FL_CPXRES=0 FL_ASLIFT=1 RL=Real:"123.453099":GRAD RX=Real:"0.016200484363701554385443171418483386958151613512755965729138966"

In:  AM=GRAD FL_CPXRES=0 FL_ASLIFT=0 RY=LonI:"2" RX=Real:"123.453099":GRAD
Out: EC=0 FL_CPXRES=0 FL_ASLIFT=1 RL=Real:"123.453099":GRAD RX=Real:"0.016200484363701554385443171418483386958151613512755965729138966"

In:  AM=RAD FL_CPXRES=0 FL_ASLIFT=0 RY=LonI:"2" RX=Real:"123.453099":GRAD
Out: EC=0 FL_CPXRES=0 FL_ASLIFT=1 RL=Real:"123.453099":GRAD RX=Real:"0.016200484363701554385443171418483386958151613512755965729138966"

In:  AM=MULTPI FL_CPXRES=0 FL_ASLIFT=0 RY=LonI:"2" RX=Real:"123.453099":GRAD
Out: EC=0 FL_CPXRES=0 FL_ASLIFT=1 RL=Real:"123.453099":GRAD RX=Real:"0.016200484363701554385443171418483386958151613512755965729138966"

In:  AM=DEG FL_CPXRES=0 FL_ASLIFT=0 RY=LonI:"2" RX=Real:"3.453099789":RAD
Out: EC=0 FL_CPXRES=0 FL_ASLIFT=1 RL=Real:"3.453099789":RAD RX=Real:"0.57918974898179520869907880904278147404560859043277419747917977"

In:  AM=DMS FL_CPXRES=0 FL_ASLIFT=0 RY=LonI:"2" RX=Real:"3.453099789":RAD
Out: EC=0 FL_CPXRES=0 FL_ASLIFT=1 RL=Real:"3.453099789":RAD RX=Real:"0.57918974898179520869907880904278147404560859043277419747917977"

In:  AM=GRAD FL_CPXRES=0 FL_ASLIFT=0 RY=LonI:"2" RX=Real:"3.453099789":RAD
Out: EC=0 FL_CPXRES=0 FL_ASLIFT=1 RL=Real:"3.453099789":RAD RX=Real:"0.57918974898179520869907880904278147404560859043277419747917977"

In:  AM=RAD FL_CPXRES=0 FL_ASLIFT=0 RY=LonI:"2" RX=Real:"3.453099789":RAD
Out: EC=0 FL_CPXRES=0 FL_ASLIFT=1 RL=Real:"3.453099789":RAD RX=Real:"0.57918974898179520869907880904278147404560859043277419747917977"

In:  AM=MULTPI FL_CPXRES=0 FL_ASLIFT=0 RY=LonI:"2" RX=Real:"3.453099789":RAD
Out: EC=0 FL_CPXRES=0 FL_ASLIFT=1 RL=Real:"3.453099789":RAD RX=Real:"0.57918974898179520869907880904278147404560859043277419747917977"

In:  AM=DEG FL_CPXRES=0 FL_ASLIFT=0 RY=LonI:"2" RX=Real:"3.453099789":MULTPI
Out: EC=0 FL_CPXRES=0 FL_ASLIFT=1 RL=Real:"3.453099789":MULTPI RX=Real:"0.57918974898179520869907880904278147404560859043277419747917977"

In:  AM=DMS FL_CPXRES=0 FL_ASLIFT=0 RY=LonI:"2" RX=Real:"3.453099789":MULTPI
Out: EC=0 FL_CPXRES=0 FL_ASLIFT=1 RL=Real:"3.453099789":MULTPI RX=Real:"0.57918974898179520869907880904278147404560859043277419747917977"

In:  AM=GRAD FL_CPXRES=0 FL_ASLIFT=0 RY=LonI:"2" RX=Real:"3.453099789":MULTPI
Out: EC=0 FL_CPXRES=0 FL_ASLIFT=1 RL=Real:"3.453099789":MULTPI RX=Real:"0.57918974898179520869907880904278147404560859043277419747917977"

In:  AM=RAD FL_CPXRES=0 FL_ASLIFT=0 RY=LonI:"2" RX=Real:"3.453099789":MULTPI
Out: EC=0 FL_CPXRES=0 FL_ASLIFT=1 RL=Real:"3.453099789":MULTPI RX=Real:"0.57918974898179520869907880904278147404560859043277419747917977"

In:  AM=MULTPI FL_CPXRES=0 FL_ASLIFT=0 RY=LonI:"2" RX=Real:"3.453099789":MULTPI
Out: EC=0 FL_CPXRES=0 FL_ASLIFT=1 RL=Real:"3.453099789":MULTPI RX=Real:"0.57918974898179520869907880904278147404560859043277419747917977"

;=======================================
; Real / Long Integer --> Real
;=======================================
In:  FL_ASLIFT=0 FL_CPXRES=0 RY=Real:"123.456" RX=LonI:"12545543120284569505847489630102030405"
Out: EC=0 FL_CPXRES=0 FL_ASLIFT=1 RL=LonI:"12545543120284569505847489630102030405" RX=Real:"9.8406261742775515542890234619968490617583323707530487292471935e-36"

In:  AM=DEG FL_CPXRES=0 FL_ASLIFT=0 RY=Real:"123.4":DEG RX=LonI:"2"
Out: EC=0 FL_CPXRES=0 FL_ASLIFT=1 RL=LonI:"2" RX=Real:"61.7":DEG

In:  AM=DMS FL_CPXRES=0 FL_ASLIFT=0 RY=Real:"123.4":DEG RX=LonI:"2"
Out: EC=0 FL_CPXRES=0 FL_ASLIFT=1 RL=LonI:"2" RX=Real:"61.7":DMS

In:  AM=GRAD FL_CPXRES=0 FL_ASLIFT=0 RY=Real:"123.4":DEG RX=LonI:"2"
Out: EC=0 FL_CPXRES=0 FL_ASLIFT=1 RL=LonI:"2" RX=Real:"68.555555555555555555555555555555555555555555555555555555555556":GRAD

In:  AM=RAD FL_CPXRES=0 FL_ASLIFT=0 RY=Real:"123.4":DEG RX=LonI:"2"
Out: EC=0 FL_CPXRES=0 FL_ASLIFT=1 RL=LonI:"2" RX=Real:"1.0768681484805013489619172041574740441942519552302446064119671":RAD

In:  AM=MULTPI FL_CPXRES=0 FL_ASLIFT=0 RY=Real:"123.4":DEG RX=LonI:"2"
Out: EC=0 FL_CPXRES=0 FL_ASLIFT=1 RL=LonI:"2" RX=Real:"1.0768681484805013489619172041574740441942519552302446064119671":MULTPI

In:  AM=DEG FL_CPXRES=0 FL_ASLIFT=0 RY=Real:"123.453099":DMS RX=LonI:"2"
Out: EC=0 FL_CPXRES=0 FL_ASLIFT=1 RL=LonI:"2" RX=Real:"61.7265495":DEG

In:  AM=DMS FL_CPXRES=0 FL_ASLIFT=0 RY=Real:"123.453099":DMS RX=LonI:"2"
Out: EC=0 FL_CPXRES=0 FL_ASLIFT=1 RL=LonI:"2" RX=Real:"61.7265495":DMS

In:  AM=GRAD FL_CPXRES=0 FL_ASLIFT=0 RY=Real:"123.453099":DMS RX=LonI:"2"
Out: EC=0 FL_CPXRES=0 FL_ASLIFT=1 RL=LonI:"2" RX=Real:"68.585055":GRAD

In:  AM=RAD FL_CPXRES=0 FL_ASLIFT=0 RY=Real:"123.453099":DMS RX=LonI:"2"
Out: EC=0 FL_CPXRES=0 FL_ASLIFT=1 RL=LonI:"2" RX=Real:"1.0773315246702595834929425594380539284266074705022929918119336":RAD

In:  AM=MULTPI FL_CPXRES=0 FL_ASLIFT=0 RY=Real:"123.453099":DMS RX=LonI:"2"
Out: EC=0 FL_CPXRES=0 FL_ASLIFT=1 RL=LonI:"2" RX=Real:"1.0773315246702595834929425594380539284266074705022929918119336":MULTPI

In:  AM=DEG FL_CPXRES=0 FL_ASLIFT=0 RY=Real:"123.453099":GRAD RX=LonI:"2"
Out: EC=0 FL_CPXRES=0 FL_ASLIFT=1 RL=LonI:"2" RX=Real:"55.55389455":DEG

In:  AM=DMS FL_CPXRES=0 FL_ASLIFT=0 RY=Real:"123.453099":GRAD RX=LonI:"2"
Out: EC=0 FL_CPXRES=0 FL_ASLIFT=1 RL=LonI:"2" RX=Real:"55.55389455":DMS

In:  AM=GRAD FL_CPXRES=0 FL_ASLIFT=0 RY=Real:"123.453099":GRAD RX=LonI:"2"
Out: EC=0 FL_CPXRES=0 FL_ASLIFT=1 RL=LonI:"2" RX=Real:"61.7265495":GRAD

In:  AM=RAD FL_CPXRES=0 FL_ASLIFT=0 RY=Real:"123.453099":GRAD RX=LonI:"2"
Out: EC=0 FL_CPXRES=0 FL_ASLIFT=1 RL=LonI:"2" RX=Real:"0.96959837220323362514364830349424853558394672345206369263074028":RAD

In:  AM=MULTPI FL_CPXRES=0 FL_ASLIFT=0 RY=Real:"123.453099":GRAD RX=LonI:"2"
Out: EC=0 FL_CPXRES=0 FL_ASLIFT=1 RL=LonI:"2" RX=Real:"0.96959837220323362514364830349424853558394672345206369263074028":MULTPI

In:  AM=DEG FL_CPXRES=0 FL_ASLIFT=0 RY=Real:"3.453099789":RAD RX=LonI:"2"
Out: EC=0 FL_CPXRES=0 FL_ASLIFT=1 RL=LonI:"2" RX=Real:"98.9240220736075424796510016920879489493191984183692841481667":DEG

In:  AM=DMS FL_CPXRES=0 FL_ASLIFT=0 RY=Real:"3.453099789":RAD RX=LonI:"2"
Out: EC=0 FL_CPXRES=0 FL_ASLIFT=1 RL=LonI:"2" RX=Real:"98.9240220736075424796510016920879489493191984183692841481667":DMS

In:  AM=GRAD FL_CPXRES=0 FL_ASLIFT=0 RY=Real:"3.453099789":RAD RX=LonI:"2"
Out: EC=0 FL_CPXRES=0 FL_ASLIFT=1 RL=LonI:"2" RX=Real:"109.91558008178615831072333521343105438813244268707698238685188":GRAD

In:  AM=RAD FL_CPXRES=0 FL_ASLIFT=0 RY=Real:"3.453099789":RAD RX=LonI:"2"
Out: EC=0 FL_CPXRES=0 FL_ASLIFT=1 RL=LonI:"2" RX=Real:"1.7265498945":RAD

In:  AM=MULTPI FL_CPXRES=0 FL_ASLIFT=0 RY=Real:"3.453099789":RAD RX=LonI:"2"
Out: EC=0 FL_CPXRES=0 FL_ASLIFT=1 RL=LonI:"2" RX=Real:"1.7265498945":MULTPI

In:  AM=DEG FL_CPXRES=0 FL_ASLIFT=0 RY=Real:"3.453099789":MULTPI RX=LonI:"2"
Out: EC=0 FL_CPXRES=0 FL_ASLIFT=1 RL=LonI:"2" RX=Real:"98.9240220736075424796510016920879489493191984183692841481667":DEG

In:  AM=DMS FL_CPXRES=0 FL_ASLIFT=0 RY=Real:"3.453099789":MULTPI RX=LonI:"2"
Out: EC=0 FL_CPXRES=0 FL_ASLIFT=1 RL=LonI:"2" RX=Real:"98.9240220736075424796510016920879489493191984183692841481667":DMS

In:  AM=GRAD FL_CPXRES=0 FL_ASLIFT=0 RY=Real:"3.453099789":MULTPI RX=LonI:"2"
Out: EC=0 FL_CPXRES=0 FL_ASLIFT=1 RL=LonI:"2" RX=Real:"109.91558008178615831072333521343105438813244268707698238685188":GRAD

In:  AM=RAD FL_CPXRES=0 FL_ASLIFT=0 RY=Real:"3.453099789":MULTPI RX=LonI:"2"
Out: EC=0 FL_CPXRES=0 FL_ASLIFT=1 RL=LonI:"2" RX=Real:"1.7265498945":RAD

In:  AM=MULTPI FL_CPXRES=0 FL_ASLIFT=0 RY=Real:"3.453099789":MULTPI RX=LonI:"2"
Out: EC=0 FL_CPXRES=0 FL_ASLIFT=1 RL=LonI:"2" RX=Real:"1.7265498945":MULTPI



;=======================================
; Long Integer / Complex --> Complex
;=======================================
In:  FL_ASLIFT=0 FL_CPXRES=0 RY=LonI:"12540" RX=Cplx:"123.456 i -6.78"
Out: EC=0 FL_CPXRES=1 FL_ASLIFT=1 RL=Cplx:"123.456 i -6.78" RX=Cplx:"101.26921954655994264774300155830463486479821262883202772543202 i 5.5615385929049735221592919790476398423999796010196438243457516"

;=======================================
; Complex / Long Integer --> Complex
;=======================================
In:  FL_ASLIFT=0 FL_CPXRES=0 RY=Cplx:"123.456 i -6.78" RX=LonI:"12540"
Out: EC=0 FL_CPXRES=1 FL_ASLIFT=1 RL=LonI:"12540" RX=Cplx:"0.0098449760765550239234449760765550239234449760765550239234449761 i -5.4066985645933014354066985645933014354066985645933014354066986e-4"
