;*************************************************************
;*************************************************************
;**                                                         **
;**                  SHORT INTEGER / ...                    **
;**                  ... / SHORT INTEGER                    **
;**                                                         **
;*************************************************************
;*************************************************************
In: FL_SPCRES=0 FL_CPXRES=0 SD=0 RM=0 IM=2compl SS=4 WS=64
Func: fnDivide



;==================================================================
; Short Integer / Long Integer      see in division_longInteger.txt
; Short Integer / Real              see in division_real.txt
; Short Integer / Complex           see in division_complex.txt
; Short Integer / Time              see in division_time.txt
; Short Integer / Date              see in division_date.txt
; Short Integer / String            see in division_string.txt
; Short Integer / Real Matrix       see in division_realMatrix.txt
; Short Integer / Complex Matrix    see in division_complexMatrix.txt
;==================================================================



;=======================================
; Short Integer / Short Integer --> Short Integer
;=======================================
In:  FL_ASLIFT=0 FL_CPXRES=0 RY=ShoI:"12540#10" RX=ShoI:"10000#2"
Out: EC=0 FL_CPXRES=0 FL_ASLIFT=1 RL=ShoI:"10000#2" RX=ShoI:"783#10"

In:  FL_ASLIFT=0 FL_CPXRES=0 RY=ShoI:"12540#10" RX=ShoI:"0#9"
Out: EC=1 FL_CPXRES=0 FL_ASLIFT=0 RY=ShoI:"12540#10" RX=ShoI:"0#9"



;=======================================
; Short Integer / Real --> Real
;=======================================
In:  FL_ASLIFT=0 FL_CPXRES=0 IM=2COMPL RY=ShoI:"45247#8" RX=Real:"123456" ;RY=19111
Out: EC=0 FL_CPXRES=0 FL_ASLIFT=1 RL=Real:"123456" RX=Real:"0.1548000907205806117159149818558838776568170036288232244686366"

In:  AM=DEG FL_CPXRES=0 FL_ASLIFT=0 RY=ShoI:"2#10" RX=Real:"123.4":DEG
Out: EC=0 FL_CPXRES=0 FL_ASLIFT=1 RL=Real:"123.4":DEG RX=Real:"0.016207455429497568881685575364667747163695299837925445705024311"

In:  AM=DMS FL_CPXRES=0 FL_ASLIFT=0 RY=ShoI:"10#2" RX=Real:"123.4":DEG
Out: EC=0 FL_CPXRES=0 FL_ASLIFT=1 RL=Real:"123.4":DEG RX=Real:"0.016207455429497568881685575364667747163695299837925445705024311"

In:  AM=GRAD FL_CPXRES=0 FL_ASLIFT=0 RY=ShoI:"2#16" RX=Real:"123.4":DEG
Out: EC=0 FL_CPXRES=0 FL_ASLIFT=1 RL=Real:"123.4":DEG RX=Real:"0.016207455429497568881685575364667747163695299837925445705024311"

In:  AM=RAD FL_CPXRES=0 FL_ASLIFT=0 RY=ShoI:"2#11" RX=Real:"123.4":DEG
Out: EC=0 FL_CPXRES=0 FL_ASLIFT=1 RL=Real:"123.4":DEG RX=Real:"0.016207455429497568881685575364667747163695299837925445705024311"

In:  AM=MULTPI FL_CPXRES=0 FL_ASLIFT=0 RY=ShoI:"232#4" RX=Real:"123.4":DEG ;RY=46
Out: EC=0 FL_CPXRES=0 FL_ASLIFT=1 RL=Real:"123.4":DEG RX=Real:"0.37277147487844408427876823338735818476499189627228525121555916"

In:  AM=DEG FL_CPXRES=0 FL_ASLIFT=0 RY=ShoI:"987#12" RX=Real:"123.453099":DMS ;RY=1399
Out: EC=0 FL_CPXRES=0 FL_ASLIFT=1 RL=Real:"123.453099":DMS RX=Real:"11.332238812409237292617498407229129177227053652172798027532707"

In:  AM=DMS FL_CPXRES=0 FL_ASLIFT=0 RY=ShoI:"2#3" RX=Real:"123.453099":DMS
Out: EC=0 FL_CPXRES=0 FL_ASLIFT=1 RL=Real:"123.453099":DMS RX=Real:"0.016200484363701554385443171418483386958151613512755965729138966"

In:  AM=GRAD FL_CPXRES=0 FL_ASLIFT=0 RY=ShoI:"2#5" RX=Real:"123.453099":DMS
Out: EC=0 FL_CPXRES=0 FL_ASLIFT=1 RL=Real:"123.453099":DMS RX=Real:"0.016200484363701554385443171418483386958151613512755965729138966"

In:  AM=RAD FL_CPXRES=0 FL_ASLIFT=0 RY=ShoI:"2#6" RX=Real:"123.453099":DMS
Out: EC=0 FL_CPXRES=0 FL_ASLIFT=1 RL=Real:"123.453099":DMS RX=Real:"0.016200484363701554385443171418483386958151613512755965729138966"

In:  AM=MULTPI FL_CPXRES=0 FL_ASLIFT=0 RY=ShoI:"2#7" RX=Real:"123.453099":DMS
Out: EC=0 FL_CPXRES=0 FL_ASLIFT=1 RL=Real:"123.453099":DMS RX=Real:"0.016200484363701554385443171418483386958151613512755965729138966"

In:  AM=DEG FL_CPXRES=0 FL_ASLIFT=0 RY=ShoI:"2#9" RX=Real:"123.453099":GRAD
Out: EC=0 FL_CPXRES=0 FL_ASLIFT=1 RL=Real:"123.453099":GRAD RX=Real:"0.016200484363701554385443171418483386958151613512755965729138966"

In:  AM=DMS FL_CPXRES=0 FL_ASLIFT=0 RY=ShoI:"2#13" RX=Real:"123.453099":GRAD
Out: EC=0 FL_CPXRES=0 FL_ASLIFT=1 RL=Real:"123.453099":GRAD RX=Real:"0.016200484363701554385443171418483386958151613512755965729138966"

In:  AM=GRAD FL_CPXRES=0 FL_ASLIFT=0 RY=ShoI:"2#14" RX=Real:"123.453099":GRAD
Out: EC=0 FL_CPXRES=0 FL_ASLIFT=1 RL=Real:"123.453099":GRAD RX=Real:"0.016200484363701554385443171418483386958151613512755965729138966"

In:  AM=RAD FL_CPXRES=0 FL_ASLIFT=0 Ry=ShoI:"2#15" RX=Real:"123.453099":GRAD
Out: EC=0 FL_CPXRES=0 FL_ASLIFT=1 RL=Real:"123.453099":GRAD RX=Real:"0.016200484363701554385443171418483386958151613512755965729138966"

In:  AM=MULTPI FL_CPXRES=0 FL_ASLIFT=0 RY=ShoI:"2#3" RX=Real:"123.453099":GRAD
Out: EC=0 FL_CPXRES=0 FL_ASLIFT=1 RL=Real:"123.453099":GRAD RX=Real:"0.016200484363701554385443171418483386958151613512755965729138966"

In:  AM=DEG FL_CPXRES=0 FL_ASLIFT=0 RY=ShoI:"2#4" RX=Real:"3.453099789":RAD
Out: EC=0 FL_CPXRES=0 FL_ASLIFT=1 RL=Real:"3.453099789":RAD RX=Real:"0.57918974898179520869907880904278147404560859043277419747917977"

In:  AM=DMS FL_CPXRES=0 FL_ASLIFT=0 RY=ShoI:"2#5" RX=Real:"3.453099789":RAD
Out: EC=0 FL_CPXRES=0 FL_ASLIFT=1 RL=Real:"3.453099789":RAD RX=Real:"0.57918974898179520869907880904278147404560859043277419747917977"

In:  AM=GRAD FL_CPXRES=0 FL_ASLIFT=0 RY=ShoI:"2#6" RX=Real:"3.453099789":RAD
Out: EC=0 FL_CPXRES=0 FL_ASLIFT=1 RL=Real:"3.453099789":RAD RX=Real:"0.57918974898179520869907880904278147404560859043277419747917977"

In:  AM=RAD FL_CPXRES=0 FL_ASLIFT=0 RY=ShoI:"2#7" RX=Real:"3.453099789":RAD
Out: EC=0 FL_CPXRES=0 FL_ASLIFT=1 RL=Real:"3.453099789":RAD RX=Real:"0.57918974898179520869907880904278147404560859043277419747917977"

In:  AM=MULTPI FL_CPXRES=0 FL_ASLIFT=0 RY=ShoI:"2#8" RX=Real:"3.453099789":RAD
Out: EC=0 FL_CPXRES=0 FL_ASLIFT=1 RL=Real:"3.453099789":RAD RX=Real:"0.57918974898179520869907880904278147404560859043277419747917977"

In:  AM=DEG FL_CPXRES=0 FL_ASLIFT=0 RY=ShoI:"2#9" RX=Real:"3.453099789":MULTPI
Out: EC=0 FL_CPXRES=0 FL_ASLIFT=1 RL=Real:"3.453099789":MULTPI RX=Real:"0.57918974898179520869907880904278147404560859043277419747917977"

In:  AM=DMS FL_CPXRES=0 FL_ASLIFT=0 RY=ShoI:"2#10" RX=Real:"3.453099789":MULTPI
Out: EC=0 FL_CPXRES=0 FL_ASLIFT=1 RL=Real:"3.453099789":MULTPI RX=Real:"0.57918974898179520869907880904278147404560859043277419747917977"

In:  AM=GRAD FL_CPXRES=0 FL_ASLIFT=0 RY=ShoI:"2#11" RX=Real:"3.453099789":MULTPI
Out: EC=0 FL_CPXRES=0 FL_ASLIFT=1 RL=Real:"3.453099789":MULTPI RX=Real:"0.57918974898179520869907880904278147404560859043277419747917977"

In:  AM=RAD FL_CPXRES=0 FL_ASLIFT=0 RY=ShoI:"2#12" RX=Real:"3.453099789":MULTPI
Out: EC=0 FL_CPXRES=0 FL_ASLIFT=1 RL=Real:"3.453099789":MULTPI RX=Real:"0.57918974898179520869907880904278147404560859043277419747917977"

In:  AM=MULTPI FL_CPXRES=0 FL_ASLIFT=0 RY=ShoI:"2#13" RX=Real:"3.453099789":MULTPI
Out: EC=0 FL_CPXRES=0 FL_ASLIFT=1 RL=Real:"3.453099789":MULTPI RX=Real:"0.57918974898179520869907880904278147404560859043277419747917977"

In:  FL_ASLIFT=0 FL_CPXRES=0 FL_SPCRES=1 IM=2COMPL RY=ShoI:"45247#8" RX=Real:"0" ;RY=19111
Out: EC=0 FL_CPXRES=0 FL_ASLIFT=1 RL=Real:"0" RX=Real:"inf"

In:  FL_ASLIFT=0 FL_CPXRES=0 FL_SPCRES=0 IM=2COMPL RY=ShoI:"45247#8" RX=Real:"0" ;RY=19111
Out: EC=1 FL_CPXRES=0 FL_ASLIFT=0 RY=ShoI:"45247#8" RX=Real:"0"

In:  FL_ASLIFT=0 FL_CPXRES=0 FL_SPCRES=1 IM=2COMPL RY=ShoI:"-45247#8" RX=Real:"0" ;RY=19111
Out: EC=0 FL_CPXRES=0 FL_ASLIFT=1 RL=Real:"0" RX=Real:"-inf"

In:  FL_ASLIFT=0 FL_CPXRES=0 FL_SPCRES=0 IM=2COMPL RY=ShoI:"-45247#8" RX=Real:"0" ;RY=19111
Out: EC=1 FL_CPXRES=0 FL_ASLIFT=0 RY=ShoI:"-45247#8" RX=Real:"0"

In:  FL_ASLIFT=0 FL_CPXRES=0 FL_SPCRES=1 IM=2COMPL RY=ShoI:"0#9" RX=Real:"0" ;RY=19111
Out: EC=0 FL_CPXRES=0 FL_ASLIFT=1 RL=Real:"0" RX=Real:"NaN"

In:  FL_ASLIFT=0 FL_CPXRES=0 FL_SPCRES=0 IM=2COMPL RY=ShoI:"0#9" RX=Real:"0" ;RY=19111
Out: EC=1 FL_CPXRES=0 FL_ASLIFT=0 RY=ShoI:"0#9" RX=Real:"0"

;=======================================
; Real / Short Integer --> Real
;=======================================
In:  FL_ASLIFT=0 FL_CPXRES=0 IM=2COMPL RY=Real:"123456" RX=ShoI:"45247#8" ;RX=19111
Out: EC=0 FL_CPXRES=0 FL_ASLIFT=1 RL=ShoI:"45247#8" RX=Real:"6.45994453456124744911307623881534194966249803777928941447334"

In:  AM=DEG FL_CPXRES=0 FL_ASLIFT=0 RY=Real:"123.4":DEG RX=ShoI:"2#10"
Out: EC=0 FL_CPXRES=0 FL_ASLIFT=1 RL=ShoI:"2#10" RX=Real:"61.7":DEG

In:  AM=DMS FL_CPXRES=0 FL_ASLIFT=0 RY=Real:"123.4":DEG RX=ShoI:"10#2"
Out: EC=0 FL_CPXRES=0 FL_ASLIFT=1 RL=ShoI:"10#2" RX=Real:"61.7":DMS

In:  AM=GRAD FL_CPXRES=0 FL_ASLIFT=0 RY=Real:"123.4":DEG RX=ShoI:"2#16"
Out: EC=0 FL_CPXRES=0 FL_ASLIFT=1 RL=ShoI:"2#16" RX=Real:"68.555555555555555555555555555555555555555555555555555555555556":GRAD

In:  AM=RAD FL_CPXRES=0 FL_ASLIFT=0 RY=Real:"123.4":DEG RX=ShoI:"2#11"
Out: EC=0 FL_CPXRES=0 FL_ASLIFT=1 RL=ShoI:"2#11" RX=Real:"1.0768681484805013489619172041574740441942519552302446064119671":RAD

In:  AM=MULTPI FL_CPXRES=0 FL_ASLIFT=0 RY=Real:"123.4":DEG RX=ShoI:"232#4" ;RX=46
Out: EC=0 FL_CPXRES=0 FL_ASLIFT=1 RL=ShoI:"232#4" RX=Real:"0.04682035428176092821573553061554234974757617196653237419182466":MULTPI

In:  AM=DEG FL_CPXRES=0 FL_ASLIFT=0 RY=Real:"123.453099":DMS RX=ShoI:"987#12" ;RX=1399
Out: EC=0 FL_CPXRES=0 FL_ASLIFT=1 RL=ShoI:"987#12" RX=Real:"0.088243816297355253752680486061472480343102215868477483917083631":DEG

In:  AM=DMS FL_CPXRES=0 FL_ASLIFT=0 RY=Real:"123.453099":DMS RX=ShoI:"2#3"
Out: EC=0 FL_CPXRES=0 FL_ASLIFT=1 RL=ShoI:"2#3" RX=Real:"61.7265495":DMS

In:  AM=GRAD FL_CPXRES=0 FL_ASLIFT=0 RY=Real:"123.453099":DMS RX=ShoI:"2#5"
Out: EC=0 FL_CPXRES=0 FL_ASLIFT=1 RL=ShoI:"2#5" RX=Real:"68.585055":GRAD

In:  AM=RAD FL_CPXRES=0 FL_ASLIFT=0 RY=Real:"123.453099":DMS RX=ShoI:"2#6"
Out: EC=0 FL_CPXRES=0 FL_ASLIFT=1 RL=ShoI:"2#6" RX=Real:"1.0773315246702595834929425594380539284266074705022929918119336":RAD

In:  AM=MULTPI FL_CPXRES=0 FL_ASLIFT=0 RY=Real:"123.453099":DMS RX=ShoI:"2#7"
Out: EC=0 FL_CPXRES=0 FL_ASLIFT=1 RL=ShoI:"2#7" RX=Real:"1.0773315246702595834929425594380539284266074705022929918119336":MULTPI

In:  AM=DEG FL_CPXRES=0 FL_ASLIFT=0 RY=Real:"123.453099":GRAD RX=ShoI:"2#9"
Out: EC=0 FL_CPXRES=0 FL_ASLIFT=1 RL=ShoI:"2#9" RX=Real:"55.55389455":DEG

In:  AM=DMS FL_CPXRES=0 FL_ASLIFT=0 RY=Real:"123.453099":GRAD RX=ShoI:"2#13"
Out: EC=0 FL_CPXRES=0 FL_ASLIFT=1 RL=ShoI:"2#13" RX=Real:"55.55389455":DMS

In:  AM=GRAD FL_CPXRES=0 FL_ASLIFT=0 RY=Real:"123.453099":GRAD RX=ShoI:"2#14"
Out: EC=0 FL_CPXRES=0 FL_ASLIFT=1 RL=ShoI:"2#14" RX=Real:"61.7265495":GRAD

In:  AM=RAD FL_CPXRES=0 FL_ASLIFT=0 RY=Real:"123.453099":GRAD RX=ShoI:"2#15"
Out: EC=0 FL_CPXRES=0 FL_ASLIFT=1 RL=ShoI:"2#15" RX=Real:"0.96959837220323362514364830349424853558394672345206369263074028":RAD

In:  AM=MULTPI FL_CPXRES=0 FL_ASLIFT=0 RY=Real:"123.453099":GRAD RX=ShoI:"2#3"
Out: EC=0 FL_CPXRES=0 FL_ASLIFT=1 RL=ShoI:"2#3" RX=Real:"0.96959837220323362514364830349424853558394672345206369263074028":MULTPI

In:  AM=DEG FL_CPXRES=0 FL_ASLIFT=0 RY=Real:"3.453099789":RAD RX=ShoI:"2#4"
Out: EC=0 FL_CPXRES=0 FL_ASLIFT=1 RL=ShoI:"2#4" RX=Real:"98.9240220736075424796510016920879489493191984183692841481667":DEG

In:  AM=DMS FL_CPXRES=0 FL_ASLIFT=0 RY=Real:"3.453099789":RAD RX=ShoI:"2#5"
Out: EC=0 FL_CPXRES=0 FL_ASLIFT=1 RL=ShoI:"2#5" RX=Real:"98.9240220736075424796510016920879489493191984183692841481667":DMS

In:  AM=GRAD FL_CPXRES=0 FL_ASLIFT=0 RY=Real:"3.453099789":RAD RX=ShoI:"2#6"
Out: EC=0 FL_CPXRES=0 FL_ASLIFT=1 RL=ShoI:"2#6" RX=Real:"109.91558008178615831072333521343105438813244268707698238685188":GRAD

In:  AM=RAD FL_CPXRES=0 FL_ASLIFT=0 RY=Real:"3.453099789":RAD RX=ShoI:"2#7"
Out: EC=0 FL_CPXRES=0 FL_ASLIFT=1 RL=ShoI:"2#7" RX=Real:"1.7265498945":RAD

In:  AM=MULTPI FL_CPXRES=0 FL_ASLIFT=0 RY=Real:"3.453099789":RAD RX=ShoI:"2#8"
Out: EC=0 FL_CPXRES=0 FL_ASLIFT=1 RL=ShoI:"2#8" RX=Real:"1.7265498945":MULTPI

In:  AM=DEG FL_CPXRES=0 FL_ASLIFT=0 RY=Real:"3.453099789":MULTPI RX=ShoI:"2#9"
Out: EC=0 FL_CPXRES=0 FL_ASLIFT=1 RL=ShoI:"2#9" RX=Real:"98.9240220736075424796510016920879489493191984183692841481667":DEG

In:  AM=DMS FL_CPXRES=0 FL_ASLIFT=0 RY=Real:"3.453099789":MULTPI RX=ShoI:"2#10"
Out: EC=0 FL_CPXRES=0 FL_ASLIFT=1 RL=ShoI:"2#10" RX=Real:"98.9240220736075424796510016920879489493191984183692841481667":DMS

In:  AM=GRAD FL_CPXRES=0 FL_ASLIFT=0 RY=Real:"3.453099789":MULTPI RX=ShoI:"2#11"
Out: EC=0 FL_CPXRES=0 FL_ASLIFT=1 RL=ShoI:"2#11" RX=Real:"109.91558008178615831072333521343105438813244268707698238685188":GRAD

In:  AM=RAD FL_CPXRES=0 FL_ASLIFT=0 RY=Real:"3.453099789":MULTPI RX=ShoI:"2#12"
Out: EC=0 FL_CPXRES=0 FL_ASLIFT=1 RL=ShoI:"2#12" RX=Real:"1.7265498945":RAD

In:  AM=MULTPI FL_CPXRES=0 FL_ASLIFT=0 RY=Real:"3.453099789":MULTPI RX=ShoI:"2#13"
Out: EC=0 FL_CPXRES=0 FL_ASLIFT=1 RL=ShoI:"2#13" RX=Real:"1.7265498945":MULTPI

In:  FL_ASLIFT=0 FL_CPXRES=0 FL_SPCRES=1 IM=2COMPL RY=Real:"123456" RX=ShoI:"0#9"
Out: EC=0 FL_CPXRES=0 FL_ASLIFT=1 RL=ShoI:"0#9" RX=Real:"inf"

In:  FL_ASLIFT=0 FL_CPXRES=0 FL_SPCRES=0 IM=2COMPL RY=Real:"123456" RX=ShoI:"0#9"
Out: EC=1 FL_CPXRES=0 FL_ASLIFT=0 RY=Real:"123456" RX=ShoI:"0#9"

In:  FL_ASLIFT=0 FL_CPXRES=0 FL_SPCRES=1 IM=2COMPL RY=Real:"-123456" RX=ShoI:"0#9"
Out: EC=0 FL_CPXRES=0 FL_ASLIFT=1 RL=ShoI:"0#9" RX=Real:"-inf"

In:  FL_ASLIFT=0 FL_CPXRES=0 FL_SPCRES=0 IM=2COMPL RY=Real:"-123456" RX=ShoI:"0#9"
Out: EC=1 FL_CPXRES=0 FL_ASLIFT=0 RY=Real:"-123456" RX=ShoI:"0#9"

In:  FL_ASLIFT=0 FL_CPXRES=0 FL_SPCRES=1 IM=2COMPL RY=Real:"0" RX=ShoI:"0#9"
Out: EC=0 FL_CPXRES=0 FL_ASLIFT=1 RL=ShoI:"0#9" RX=Real:"NaN"

In:  FL_ASLIFT=0 FL_CPXRES=0 FL_SPCRES=0 IM=2COMPL RY=Real:"0" RX=ShoI:"0#9"
Out: EC=1 FL_CPXRES=0 FL_ASLIFT=0 RY=Real:"0" RX=ShoI:"0#9"


;=======================================
; Short Integer / Complex --> Complex
;=======================================
In:  FL_ASLIFT=0 FL_CPXRES=0 RY=ShoI:"12540#10" RX=Cplx:"123.456 i -6.78"
Out: EC=0 FL_CPXRES=1 FL_ASLIFT=1 RL=Cplx:"123.456 i -6.78" RX=Cplx:"101.26921954655994264774300155830463486479821262883202772543202 i 5.5615385929049735221592919790476398423999796010196438243457516"

;=======================================
; Complex / Short Integer --> Complex
;=======================================
In:  FL_ASLIFT=0 FL_CPXRES=0 IM=2COMPL RY=Cplx:"123456 i -546" RX=ShoI:"45247#8" ;RX=19111
Out: EC=0 FL_CPXRES=1 FL_ASLIFT=1 RL=ShoI:"45247#8" RX=Cplx:"6.45994453456124744911307623881534194966249803777928941447334 i -0.028569933546125268170163780021976871958557898592433676939982209"
